// Jest Snapshot v1, https://goo.gl/fbAQLP

exports[`that an unknown data piece is returned 1`] = `
Object {
  "code": "CAN",
  "isAggregate": false,
  "name": "Canada",
}
`;

exports[`that its an aggregate 1`] = `
Object {
  "code": "EA16",
  "isAggregate": true,
  "name": "EU16",
}
`;
